%YAML 1.1
%TAG !u! tag:unity3d.com,2011:
--- !u!29 &1
OcclusionCullingSettings:
  m_ObjectHideFlags: 0
  serializedVersion: 2
  m_OcclusionBakeSettings:
    smallestOccluder: 5
    smallestHole: 0.25
    backfaceThreshold: 100
  m_SceneGUID: 00000000000000000000000000000000
  m_OcclusionCullingData: {fileID: 0}
--- !u!104 &2
RenderSettings:
  m_ObjectHideFlags: 0
  serializedVersion: 9
  m_Fog: 0
  m_FogColor: {r: 0.5, g: 0.5, b: 0.5, a: 1}
  m_FogMode: 3
  m_FogDensity: 0.01
  m_LinearFogStart: 0
  m_LinearFogEnd: 300
  m_AmbientSkyColor: {r: 0.212, g: 0.227, b: 0.259, a: 1}
  m_AmbientEquatorColor: {r: 0.114, g: 0.125, b: 0.133, a: 1}
  m_AmbientGroundColor: {r: 0.047, g: 0.043, b: 0.035, a: 1}
  m_AmbientIntensity: 1
  m_AmbientMode: 0
  m_SubtractiveShadowColor: {r: 0.42, g: 0.478, b: 0.627, a: 1}
  m_SkyboxMaterial: {fileID: 10304, guid: 0000000000000000f000000000000000, type: 0}
  m_HaloStrength: 0.5
  m_FlareStrength: 1
  m_FlareFadeSpeed: 3
  m_HaloTexture: {fileID: 0}
  m_SpotCookie: {fileID: 10001, guid: 0000000000000000e000000000000000, type: 0}
  m_DefaultReflectionMode: 0
  m_DefaultReflectionResolution: 128
  m_ReflectionBounces: 1
  m_ReflectionIntensity: 1
  m_CustomReflection: {fileID: 0}
  m_Sun: {fileID: 0}
  m_IndirectSpecularColor: {r: 0.44657898, g: 0.4964133, b: 0.5748178, a: 1}
  m_UseRadianceAmbientProbe: 0
--- !u!157 &3
LightmapSettings:
  m_ObjectHideFlags: 0
  serializedVersion: 12
  m_GIWorkflowMode: 1
  m_GISettings:
    serializedVersion: 2
    m_BounceScale: 1
    m_IndirectOutputScale: 1
    m_AlbedoBoost: 1
    m_EnvironmentLightingMode: 0
    m_EnableBakedLightmaps: 1
    m_EnableRealtimeLightmaps: 0
  m_LightmapEditorSettings:
    serializedVersion: 12
    m_Resolution: 2
    m_BakeResolution: 40
    m_AtlasSize: 1024
    m_AO: 0
    m_AOMaxDistance: 1
    m_CompAOExponent: 1
    m_CompAOExponentDirect: 0
    m_ExtractAmbientOcclusion: 0
    m_Padding: 2
    m_LightmapParameters: {fileID: 0}
    m_LightmapsBakeMode: 1
    m_TextureCompression: 1
    m_FinalGather: 0
    m_FinalGatherFiltering: 1
    m_FinalGatherRayCount: 256
    m_ReflectionCompression: 2
    m_MixedBakeMode: 2
    m_BakeBackend: 1
    m_PVRSampling: 1
    m_PVRDirectSampleCount: 32
    m_PVRSampleCount: 512
    m_PVRBounces: 2
    m_PVREnvironmentSampleCount: 256
    m_PVREnvironmentReferencePointCount: 2048
    m_PVRFilteringMode: 1
    m_PVRDenoiserTypeDirect: 1
    m_PVRDenoiserTypeIndirect: 1
    m_PVRDenoiserTypeAO: 1
    m_PVRFilterTypeDirect: 0
    m_PVRFilterTypeIndirect: 0
    m_PVRFilterTypeAO: 0
    m_PVREnvironmentMIS: 1
    m_PVRCulling: 1
    m_PVRFilteringGaussRadiusDirect: 1
    m_PVRFilteringGaussRadiusIndirect: 5
    m_PVRFilteringGaussRadiusAO: 2
    m_PVRFilteringAtrousPositionSigmaDirect: 0.5
    m_PVRFilteringAtrousPositionSigmaIndirect: 2
    m_PVRFilteringAtrousPositionSigmaAO: 1
    m_ExportTrainingData: 0
    m_TrainingDataDestination: TrainingData
    m_LightProbeSampleCountMultiplier: 4
  m_LightingDataAsset: {fileID: 0}
  m_LightingSettings: {fileID: 0}
--- !u!196 &4
NavMeshSettings:
  serializedVersion: 2
  m_ObjectHideFlags: 0
  m_BuildSettings:
    serializedVersion: 2
    agentTypeID: 0
    agentRadius: 0.5
    agentHeight: 2
    agentSlope: 45
    agentClimb: 0.4
    ledgeDropHeight: 0
    maxJumpAcrossDistance: 0
    minRegionArea: 2
    manualCellSize: 0
    cellSize: 0.16666667
    manualTileSize: 0
    tileSize: 256
    accuratePlacement: 0
    maxJobWorkers: 0
    preserveTilesOutsideBounds: 0
    debug:
      m_Flags: 0
  m_NavMeshData: {fileID: 0}
--- !u!1001 &248175062
PrefabInstance:
  m_ObjectHideFlags: 0
  serializedVersion: 2
  m_Modification:
    m_TransformParent: {fileID: 0}
    m_Modifications:
    - target: {fileID: -3861163519700936992, guid: 3bb7486dd80475c44ae5c250aa692969, type: 3}
      propertyPath: m_RootOrder
      value: 17
      objectReference: {fileID: 0}
    - target: {fileID: 148152357627183833, guid: 3bb7486dd80475c44ae5c250aa692969, type: 3}
      propertyPath: m_IsActive
      value: 1
      objectReference: {fileID: 0}
    - target: {fileID: 179307127979052135, guid: 3bb7486dd80475c44ae5c250aa692969, type: 3}
      propertyPath: m_RootOrder
      value: 12
      objectReference: {fileID: 0}
    - target: {fileID: 240486045197410846, guid: 3bb7486dd80475c44ae5c250aa692969, type: 3}
      propertyPath: m_RootOrder
      value: 10
      objectReference: {fileID: 0}
    - target: {fileID: 313496974938043141, guid: 3bb7486dd80475c44ae5c250aa692969, type: 3}
      propertyPath: m_IsActive
      value: 1
      objectReference: {fileID: 0}
    - target: {fileID: 335337953734573977, guid: 3bb7486dd80475c44ae5c250aa692969, type: 3}
      propertyPath: m_IsActive
      value: 1
      objectReference: {fileID: 0}
    - target: {fileID: 379950273567611478, guid: 3bb7486dd80475c44ae5c250aa692969, type: 3}
      propertyPath: m_IsActive
      value: 1
      objectReference: {fileID: 0}
    - target: {fileID: 531624670518001903, guid: 3bb7486dd80475c44ae5c250aa692969, type: 3}
      propertyPath: m_RootOrder
      value: 9
      objectReference: {fileID: 0}
    - target: {fileID: 663953628235781853, guid: 3bb7486dd80475c44ae5c250aa692969, type: 3}
      propertyPath: m_IsActive
      value: 1
      objectReference: {fileID: 0}
    - target: {fileID: 788590474474073683, guid: 3bb7486dd80475c44ae5c250aa692969, type: 3}
      propertyPath: m_RootOrder
      value: 4
      objectReference: {fileID: 0}
    - target: {fileID: 855722439811728008, guid: 3bb7486dd80475c44ae5c250aa692969, type: 3}
      propertyPath: m_RootOrder
      value: 2
      objectReference: {fileID: 0}
    - target: {fileID: 876906147024411221, guid: 3bb7486dd80475c44ae5c250aa692969, type: 3}
      propertyPath: m_IsActive
      value: 1
      objectReference: {fileID: 0}
    - target: {fileID: 990323175665116174, guid: 3bb7486dd80475c44ae5c250aa692969, type: 3}
      propertyPath: m_RootOrder
      value: 2
      objectReference: {fileID: 0}
    - target: {fileID: 1085951878881552831, guid: 3bb7486dd80475c44ae5c250aa692969, type: 3}
      propertyPath: m_RootOrder
      value: 15
      objectReference: {fileID: 0}
    - target: {fileID: 1147446739972547875, guid: 3bb7486dd80475c44ae5c250aa692969, type: 3}
      propertyPath: m_RootOrder
      value: 1
      objectReference: {fileID: 0}
    - target: {fileID: 1147446739972547875, guid: 3bb7486dd80475c44ae5c250aa692969, type: 3}
      propertyPath: m_LocalPosition.y
      value: 0.85
      objectReference: {fileID: 0}
    - target: {fileID: 1186340175841974786, guid: 3bb7486dd80475c44ae5c250aa692969, type: 3}
      propertyPath: m_RootOrder
      value: 17
      objectReference: {fileID: 0}
    - target: {fileID: 1215195227253028076, guid: 3bb7486dd80475c44ae5c250aa692969, type: 3}
      propertyPath: m_Name
      value: Slice
      objectReference: {fileID: 0}
    - target: {fileID: 1215195227253028076, guid: 3bb7486dd80475c44ae5c250aa692969, type: 3}
      propertyPath: m_TagString
      value: Untagged
      objectReference: {fileID: 0}
    - target: {fileID: 1338270577164706967, guid: 3bb7486dd80475c44ae5c250aa692969, type: 3}
      propertyPath: m_IsActive
      value: 1
      objectReference: {fileID: 0}
    - target: {fileID: 1388829179771912069, guid: 3bb7486dd80475c44ae5c250aa692969, type: 3}
      propertyPath: m_IsActive
      value: 1
      objectReference: {fileID: 0}
    - target: {fileID: 1412942494174993385, guid: 3bb7486dd80475c44ae5c250aa692969, type: 3}
      propertyPath: m_RootOrder
      value: 13
      objectReference: {fileID: 0}
    - target: {fileID: 1432327377046052281, guid: 3bb7486dd80475c44ae5c250aa692969, type: 3}
      propertyPath: m_IsActive
      value: 1
      objectReference: {fileID: 0}
    - target: {fileID: 1733266192626361663, guid: 3bb7486dd80475c44ae5c250aa692969, type: 3}
      propertyPath: m_RootOrder
      value: 14
      objectReference: {fileID: 0}
    - target: {fileID: 1787954455856709971, guid: 3bb7486dd80475c44ae5c250aa692969, type: 3}
      propertyPath: m_IsActive
      value: 1
      objectReference: {fileID: 0}
    - target: {fileID: 1803414058834064762, guid: 3bb7486dd80475c44ae5c250aa692969, type: 3}
      propertyPath: m_RootOrder
      value: 3
      objectReference: {fileID: 0}
    - target: {fileID: 1862710494095359533, guid: 3bb7486dd80475c44ae5c250aa692969, type: 3}
      propertyPath: m_RootOrder
      value: 18
      objectReference: {fileID: 0}
    - target: {fileID: 1897065406225830294, guid: 3bb7486dd80475c44ae5c250aa692969, type: 3}
      propertyPath: m_IsActive
      value: 1
      objectReference: {fileID: 0}
    - target: {fileID: 1986487186949320282, guid: 3bb7486dd80475c44ae5c250aa692969, type: 3}
      propertyPath: m_IsActive
      value: 1
      objectReference: {fileID: 0}
    - target: {fileID: 2131592983729813541, guid: 3bb7486dd80475c44ae5c250aa692969, type: 3}
      propertyPath: m_IsActive
      value: 1
      objectReference: {fileID: 0}
    - target: {fileID: 2600534491281175151, guid: 3bb7486dd80475c44ae5c250aa692969, type: 3}
      propertyPath: m_IsActive
      value: 1
      objectReference: {fileID: 0}
    - target: {fileID: 2607871973586910009, guid: 3bb7486dd80475c44ae5c250aa692969, type: 3}
      propertyPath: m_RootOrder
      value: 12
      objectReference: {fileID: 0}
    - target: {fileID: 2636205693298523607, guid: 3bb7486dd80475c44ae5c250aa692969, type: 3}
      propertyPath: m_RootOrder
      value: 16
      objectReference: {fileID: 0}
    - target: {fileID: 2799381180664163257, guid: 3bb7486dd80475c44ae5c250aa692969, type: 3}
      propertyPath: m_IsActive
      value: 1
      objectReference: {fileID: 0}
    - target: {fileID: 2852437931277738484, guid: 3bb7486dd80475c44ae5c250aa692969, type: 3}
      propertyPath: m_RootOrder
      value: 13
      objectReference: {fileID: 0}
    - target: {fileID: 3120883569679027866, guid: 3bb7486dd80475c44ae5c250aa692969, type: 3}
      propertyPath: m_RootOrder
      value: 8
      objectReference: {fileID: 0}
    - target: {fileID: 3122832902870808429, guid: 3bb7486dd80475c44ae5c250aa692969, type: 3}
      propertyPath: m_IsActive
      value: 1
      objectReference: {fileID: 0}
    - target: {fileID: 3128153216631431699, guid: 3bb7486dd80475c44ae5c250aa692969, type: 3}
      propertyPath: m_RootOrder
      value: 15
      objectReference: {fileID: 0}
    - target: {fileID: 3134439582046926079, guid: 3bb7486dd80475c44ae5c250aa692969, type: 3}
      propertyPath: m_RootOrder
      value: 18
      objectReference: {fileID: 0}
    - target: {fileID: 3400190800227240806, guid: 3bb7486dd80475c44ae5c250aa692969, type: 3}
      propertyPath: m_RootOrder
      value: 6
      objectReference: {fileID: 0}
    - target: {fileID: 3412924756969089237, guid: 3bb7486dd80475c44ae5c250aa692969, type: 3}
      propertyPath: m_RootOrder
      value: 10
      objectReference: {fileID: 0}
    - target: {fileID: 3478880699752453800, guid: 3bb7486dd80475c44ae5c250aa692969, type: 3}
      propertyPath: m_RootOrder
      value: 4
      objectReference: {fileID: 0}
    - target: {fileID: 3479950826171917077, guid: 3bb7486dd80475c44ae5c250aa692969, type: 3}
      propertyPath: m_RootOrder
      value: 6
      objectReference: {fileID: 0}
    - target: {fileID: 3729538617213312172, guid: 3bb7486dd80475c44ae5c250aa692969, type: 3}
      propertyPath: m_RootOrder
      value: 14
      objectReference: {fileID: 0}
    - target: {fileID: 3765226541539511701, guid: 3bb7486dd80475c44ae5c250aa692969, type: 3}
      propertyPath: m_IsActive
      value: 1
      objectReference: {fileID: 0}
    - target: {fileID: 3791194850862370322, guid: 3bb7486dd80475c44ae5c250aa692969, type: 3}
      propertyPath: m_IsActive
      value: 1
      objectReference: {fileID: 0}
    - target: {fileID: 3824881304082011275, guid: 3bb7486dd80475c44ae5c250aa692969, type: 3}
      propertyPath: m_IsActive
      value: 1
      objectReference: {fileID: 0}
    - target: {fileID: 3942431965105835304, guid: 3bb7486dd80475c44ae5c250aa692969, type: 3}
      propertyPath: m_IsActive
      value: 1
      objectReference: {fileID: 0}
    - target: {fileID: 3942765801257264581, guid: 3bb7486dd80475c44ae5c250aa692969, type: 3}
      propertyPath: m_IsActive
      value: 1
      objectReference: {fileID: 0}
    - target: {fileID: 4169932034105077578, guid: 3bb7486dd80475c44ae5c250aa692969, type: 3}
      propertyPath: m_IsActive
      value: 1
      objectReference: {fileID: 0}
    - target: {fileID: 4175675303108050898, guid: 3bb7486dd80475c44ae5c250aa692969, type: 3}
      propertyPath: m_RootOrder
      value: 7
      objectReference: {fileID: 0}
    - target: {fileID: 4251561300607220143, guid: 3bb7486dd80475c44ae5c250aa692969, type: 3}
      propertyPath: m_IsActive
      value: 1
      objectReference: {fileID: 0}
    - target: {fileID: 4466537529181421439, guid: 3bb7486dd80475c44ae5c250aa692969, type: 3}
      propertyPath: m_RootOrder
      value: 7
      objectReference: {fileID: 0}
    - target: {fileID: 4658578213441566134, guid: 3bb7486dd80475c44ae5c250aa692969, type: 3}
      propertyPath: m_RootOrder
      value: 19
      objectReference: {fileID: 0}
    - target: {fileID: 4679243784899068965, guid: 3bb7486dd80475c44ae5c250aa692969, type: 3}
      propertyPath: m_RootOrder
      value: 7
      objectReference: {fileID: 0}
    - target: {fileID: 4709597807688902371, guid: 3bb7486dd80475c44ae5c250aa692969, type: 3}
      propertyPath: m_RootOrder
      value: 9
      objectReference: {fileID: 0}
    - target: {fileID: 4909794577027394952, guid: 3bb7486dd80475c44ae5c250aa692969, type: 3}
      propertyPath: m_RootOrder
      value: 12
      objectReference: {fileID: 0}
    - target: {fileID: 4950781640302795249, guid: 3bb7486dd80475c44ae5c250aa692969, type: 3}
      propertyPath: m_RootOrder
      value: 1
      objectReference: {fileID: 0}
    - target: {fileID: 4986004910103639551, guid: 3bb7486dd80475c44ae5c250aa692969, type: 3}
      propertyPath: m_RootOrder
      value: 17
      objectReference: {fileID: 0}
    - target: {fileID: 5000518018125570751, guid: 3bb7486dd80475c44ae5c250aa692969, type: 3}
      propertyPath: m_IsActive
      value: 1
      objectReference: {fileID: 0}
    - target: {fileID: 5056001309554954497, guid: 3bb7486dd80475c44ae5c250aa692969, type: 3}
      propertyPath: m_RootOrder
      value: 16
      objectReference: {fileID: 0}
    - target: {fileID: 5071932839174238848, guid: 3bb7486dd80475c44ae5c250aa692969, type: 3}
      propertyPath: m_IsActive
      value: 1
      objectReference: {fileID: 0}
    - target: {fileID: 5186342143613014102, guid: 3bb7486dd80475c44ae5c250aa692969, type: 3}
      propertyPath: m_IsActive
      value: 1
      objectReference: {fileID: 0}
    - target: {fileID: 5194039025669852010, guid: 3bb7486dd80475c44ae5c250aa692969, type: 3}
      propertyPath: m_IsActive
      value: 1
      objectReference: {fileID: 0}
    - target: {fileID: 5329278648776642513, guid: 3bb7486dd80475c44ae5c250aa692969, type: 3}
      propertyPath: m_Materials.Array.data[0]
      value: 
      objectReference: {fileID: 2100000, guid: fd1850eac13d727459c4ace3af63c616, type: 2}
    - target: {fileID: 5329278648776642515, guid: 3bb7486dd80475c44ae5c250aa692969, type: 3}
      propertyPath: m_RootOrder
      value: 2
      objectReference: {fileID: 0}
    - target: {fileID: 5329278648776642515, guid: 3bb7486dd80475c44ae5c250aa692969, type: 3}
      propertyPath: m_LocalPosition.x
      value: -1.71e-13
      objectReference: {fileID: 0}
    - target: {fileID: 5329278648776642515, guid: 3bb7486dd80475c44ae5c250aa692969, type: 3}
      propertyPath: m_LocalPosition.y
      value: 0
      objectReference: {fileID: 0}
    - target: {fileID: 5329278648776642515, guid: 3bb7486dd80475c44ae5c250aa692969, type: 3}
      propertyPath: m_LocalPosition.z
      value: 1.71e-13
      objectReference: {fileID: 0}
    - target: {fileID: 5329278648776642515, guid: 3bb7486dd80475c44ae5c250aa692969, type: 3}
      propertyPath: m_LocalRotation.w
      value: -0.8758844
      objectReference: {fileID: 0}
    - target: {fileID: 5329278648776642515, guid: 3bb7486dd80475c44ae5c250aa692969, type: 3}
      propertyPath: m_LocalRotation.x
      value: -0
      objectReference: {fileID: 0}
    - target: {fileID: 5329278648776642515, guid: 3bb7486dd80475c44ae5c250aa692969, type: 3}
      propertyPath: m_LocalRotation.y
      value: 0.4825211
      objectReference: {fileID: 0}
    - target: {fileID: 5329278648776642515, guid: 3bb7486dd80475c44ae5c250aa692969, type: 3}
      propertyPath: m_LocalRotation.z
      value: -0
      objectReference: {fileID: 0}
    - target: {fileID: 5329278648776642515, guid: 3bb7486dd80475c44ae5c250aa692969, type: 3}
      propertyPath: m_LocalEulerAnglesHint.x
      value: 0
      objectReference: {fileID: 0}
    - target: {fileID: 5329278648776642515, guid: 3bb7486dd80475c44ae5c250aa692969, type: 3}
      propertyPath: m_LocalEulerAnglesHint.y
      value: 302.3
      objectReference: {fileID: 0}
    - target: {fileID: 5329278648776642515, guid: 3bb7486dd80475c44ae5c250aa692969, type: 3}
      propertyPath: m_LocalEulerAnglesHint.z
      value: 0
      objectReference: {fileID: 0}
    - target: {fileID: 5329278648776642527, guid: 3bb7486dd80475c44ae5c250aa692969, type: 3}
      propertyPath: m_Name
      value: ObstacleTube
      objectReference: {fileID: 0}
    - target: {fileID: 5440217755771421744, guid: 3bb7486dd80475c44ae5c250aa692969, type: 3}
      propertyPath: m_RootOrder
      value: 10
      objectReference: {fileID: 0}
    - target: {fileID: 5575833246448389051, guid: 3bb7486dd80475c44ae5c250aa692969, type: 3}
      propertyPath: m_IsActive
      value: 1
      objectReference: {fileID: 0}
    - target: {fileID: 5627050893899489669, guid: 3bb7486dd80475c44ae5c250aa692969, type: 3}
      propertyPath: m_IsActive
      value: 1
      objectReference: {fileID: 0}
    - target: {fileID: 5633642529894234117, guid: 3bb7486dd80475c44ae5c250aa692969, type: 3}
      propertyPath: m_RootOrder
      value: 11
      objectReference: {fileID: 0}
    - target: {fileID: 5718347335934810948, guid: 3bb7486dd80475c44ae5c250aa692969, type: 3}
      propertyPath: m_RootOrder
      value: 16
      objectReference: {fileID: 0}
    - target: {fileID: 5744252389425683142, guid: 3bb7486dd80475c44ae5c250aa692969, type: 3}
      propertyPath: m_IsActive
      value: 1
      objectReference: {fileID: 0}
    - target: {fileID: 5788451948211275904, guid: 3bb7486dd80475c44ae5c250aa692969, type: 3}
      propertyPath: m_RootOrder
      value: 0
      objectReference: {fileID: 0}
    - target: {fileID: 5808052133340236357, guid: 3bb7486dd80475c44ae5c250aa692969, type: 3}
      propertyPath: m_IsActive
      value: 1
      objectReference: {fileID: 0}
    - target: {fileID: 6256680870322282685, guid: 3bb7486dd80475c44ae5c250aa692969, type: 3}
      propertyPath: m_RootOrder
      value: 8
      objectReference: {fileID: 0}
    - target: {fileID: 6361365735511033210, guid: 3bb7486dd80475c44ae5c250aa692969, type: 3}
      propertyPath: m_RootOrder
      value: 15
      objectReference: {fileID: 0}
    - target: {fileID: 6477896364764400703, guid: 3bb7486dd80475c44ae5c250aa692969, type: 3}
      propertyPath: m_IsActive
      value: 1
      objectReference: {fileID: 0}
    - target: {fileID: 6764664316416461212, guid: 3bb7486dd80475c44ae5c250aa692969, type: 3}
      propertyPath: m_RootOrder
      value: 8
      objectReference: {fileID: 0}
    - target: {fileID: 6802210652859397649, guid: 3bb7486dd80475c44ae5c250aa692969, type: 3}
      propertyPath: m_IsActive
      value: 1
      objectReference: {fileID: 0}
    - target: {fileID: 6852634753633360735, guid: 3bb7486dd80475c44ae5c250aa692969, type: 3}
      propertyPath: m_RootOrder
      value: 5
      objectReference: {fileID: 0}
    - target: {fileID: 7078601430620743637, guid: 3bb7486dd80475c44ae5c250aa692969, type: 3}
      propertyPath: m_RootOrder
      value: 11
      objectReference: {fileID: 0}
    - target: {fileID: 7177505356249245178, guid: 3bb7486dd80475c44ae5c250aa692969, type: 3}
      propertyPath: m_RootOrder
      value: 17
      objectReference: {fileID: 0}
    - target: {fileID: 7417370337394198655, guid: 3bb7486dd80475c44ae5c250aa692969, type: 3}
      propertyPath: m_RootOrder
      value: 9
      objectReference: {fileID: 0}
    - target: {fileID: 7552624241657741120, guid: 3bb7486dd80475c44ae5c250aa692969, type: 3}
      propertyPath: m_IsActive
      value: 1
      objectReference: {fileID: 0}
    - target: {fileID: 7602994603178068063, guid: 3bb7486dd80475c44ae5c250aa692969, type: 3}
      propertyPath: m_RootOrder
      value: 5
      objectReference: {fileID: 0}
    - target: {fileID: 7633717279807182392, guid: 3bb7486dd80475c44ae5c250aa692969, type: 3}
      propertyPath: m_IsActive
      value: 1
      objectReference: {fileID: 0}
    - target: {fileID: 7789352881351806018, guid: 3bb7486dd80475c44ae5c250aa692969, type: 3}
      propertyPath: m_RootOrder
      value: 13
      objectReference: {fileID: 0}
    - target: {fileID: 7843555191890112442, guid: 3bb7486dd80475c44ae5c250aa692969, type: 3}
      propertyPath: m_IsActive
      value: 1
      objectReference: {fileID: 0}
    - target: {fileID: 7882386266508553976, guid: 3bb7486dd80475c44ae5c250aa692969, type: 3}
      propertyPath: m_IsActive
      value: 1
      objectReference: {fileID: 0}
    - target: {fileID: 7952390688168342673, guid: 3bb7486dd80475c44ae5c250aa692969, type: 3}
      propertyPath: m_Materials.Array.data[0]
      value: 
      objectReference: {fileID: 2100000, guid: 1d184b6a400ed5d4e911b3c613283869, type: 2}
    - target: {fileID: 8076507530408450060, guid: 3bb7486dd80475c44ae5c250aa692969, type: 3}
      propertyPath: m_RootOrder
      value: 14
      objectReference: {fileID: 0}
    - target: {fileID: 8122729639625059799, guid: 3bb7486dd80475c44ae5c250aa692969, type: 3}
      propertyPath: m_IsActive
      value: 1
      objectReference: {fileID: 0}
    - target: {fileID: 8250307748688739248, guid: 3bb7486dd80475c44ae5c250aa692969, type: 3}
      propertyPath: m_RootOrder
      value: 6
      objectReference: {fileID: 0}
    - target: {fileID: 8381076841050121652, guid: 3bb7486dd80475c44ae5c250aa692969, type: 3}
      propertyPath: m_LocalScale.y
      value: 0
      objectReference: {fileID: 0}
    - target: {fileID: 8429537173331372367, guid: 3bb7486dd80475c44ae5c250aa692969, type: 3}
      propertyPath: m_IsActive
      value: 1
      objectReference: {fileID: 0}
    - target: {fileID: 8525771772327602323, guid: 3bb7486dd80475c44ae5c250aa692969, type: 3}
      propertyPath: m_IsActive
      value: 1
      objectReference: {fileID: 0}
    - target: {fileID: 8573288426271819999, guid: 3bb7486dd80475c44ae5c250aa692969, type: 3}
      propertyPath: m_IsActive
      value: 1
      objectReference: {fileID: 0}
    - target: {fileID: 8833541771843145594, guid: 3bb7486dd80475c44ae5c250aa692969, type: 3}
      propertyPath: m_RootOrder
      value: 11
      objectReference: {fileID: 0}
    - target: {fileID: 8931318927793010541, guid: 3bb7486dd80475c44ae5c250aa692969, type: 3}
      propertyPath: m_RootOrder
      value: 8
      objectReference: {fileID: 0}
    - target: {fileID: 9014641771624526377, guid: 3bb7486dd80475c44ae5c250aa692969, type: 3}
      propertyPath: m_RootOrder
      value: 4
      objectReference: {fileID: 0}
    - target: {fileID: 9059054714627365275, guid: 3bb7486dd80475c44ae5c250aa692969, type: 3}
      propertyPath: maxToDeath
      value: 2
      objectReference: {fileID: 0}
    - target: {fileID: 9059054714627365275, guid: 3bb7486dd80475c44ae5c250aa692969, type: 3}
      propertyPath: maxToDelete
      value: 3
      objectReference: {fileID: 0}
    - target: {fileID: 9118322001545378918, guid: 3bb7486dd80475c44ae5c250aa692969, type: 3}
      propertyPath: m_RootOrder
      value: 18
      objectReference: {fileID: 0}
    - target: {fileID: 9200972551359935477, guid: 3bb7486dd80475c44ae5c250aa692969, type: 3}
      propertyPath: m_RootOrder
      value: 5
      objectReference: {fileID: 0}
    m_RemovedComponents: []
  m_SourcePrefab: {fileID: 100100000, guid: 3bb7486dd80475c44ae5c250aa692969, type: 3}
--- !u!1 &690502809
GameObject:
  m_ObjectHideFlags: 0
  m_CorrespondingSourceObject: {fileID: 0}
  m_PrefabInstance: {fileID: 0}
  m_PrefabAsset: {fileID: 0}
  serializedVersion: 6
  m_Component:
  - component: {fileID: 690502811}
  - component: {fileID: 690502810}
  m_Layer: 0
  m_Name: Light
  m_TagString: Untagged
  m_Icon: {fileID: 0}
  m_NavMeshLayer: 0
  m_StaticEditorFlags: 0
  m_IsActive: 1
--- !u!108 &690502810
Light:
  m_ObjectHideFlags: 0
  m_CorrespondingSourceObject: {fileID: 0}
  m_PrefabInstance: {fileID: 0}
  m_PrefabAsset: {fileID: 0}
  m_GameObject: {fileID: 690502809}
  m_Enabled: 1
  serializedVersion: 10
  m_Type: 1
  m_Shape: 0
  m_Color: {r: 1, g: 0.95686275, b: 0.8392157, a: 1}
  m_Intensity: 1
  m_Range: 10
  m_SpotAngle: 30
  m_InnerSpotAngle: 21.80208
  m_CookieSize: 10
  m_Shadows:
    m_Type: 2
    m_Resolution: -1
    m_CustomResolution: -1
    m_Strength: 1
    m_Bias: 0.05
    m_NormalBias: 0.4
    m_NearPlane: 0.2
    m_CullingMatrixOverride:
      e00: 1
      e01: 0
      e02: 0
      e03: 0
      e10: 0
      e11: 1
      e12: 0
      e13: 0
      e20: 0
      e21: 0
      e22: 1
      e23: 0
      e30: 0
      e31: 0
      e32: 0
      e33: 1
    m_UseCullingMatrixOverride: 0
  m_Cookie: {fileID: 0}
  m_DrawHalo: 0
  m_Flare: {fileID: 0}
  m_RenderMode: 0
  m_CullingMask:
    serializedVersion: 2
    m_Bits: 4294967295
  m_RenderingLayerMask: 1
  m_Lightmapping: 2
  m_LightShadowCasterMode: 0
  m_AreaSize: {x: 1, y: 1}
  m_BounceIntensity: 1
  m_ColorTemperature: 6570
  m_UseColorTemperature: 0
  m_BoundingSphereOverride: {x: 0, y: 0, z: 0, w: 0}
  m_UseBoundingSphereOverride: 0
  m_UseViewFrustumForShadowCasterCull: 1
  m_ShadowRadius: 0
  m_ShadowAngle: 0
--- !u!4 &690502811
Transform:
  m_ObjectHideFlags: 0
  m_CorrespondingSourceObject: {fileID: 0}
  m_PrefabInstance: {fileID: 0}
  m_PrefabAsset: {fileID: 0}
  m_GameObject: {fileID: 690502809}
  m_LocalRotation: {x: 0.40821788, y: -0.23456968, z: 0.10938163, w: 0.8754261}
  m_LocalPosition: {x: 0, y: 3, z: 0}
  m_LocalScale: {x: 1, y: 1, z: 1}
  m_Children: []
  m_Father: {fileID: 0}
  m_RootOrder: 0
  m_LocalEulerAnglesHint: {x: 50, y: -30, z: 0}
--- !u!1001 &703918388
PrefabInstance:
  m_ObjectHideFlags: 0
  serializedVersion: 2
  m_Modification:
    m_TransformParent: {fileID: 0}
    m_Modifications:
    - target: {fileID: 817482172263058747, guid: 9d246ed5ffc4ea448a524dca514f023f, type: 3}
      propertyPath: m_AnchorMax.y
      value: 0
      objectReference: {fileID: 0}
    - target: {fileID: 817482172291733760, guid: 9d246ed5ffc4ea448a524dca514f023f, type: 3}
      propertyPath: m_Pivot.x
      value: 0
      objectReference: {fileID: 0}
    - target: {fileID: 817482172291733760, guid: 9d246ed5ffc4ea448a524dca514f023f, type: 3}
      propertyPath: m_Pivot.y
      value: 0
      objectReference: {fileID: 0}
    - target: {fileID: 817482172291733760, guid: 9d246ed5ffc4ea448a524dca514f023f, type: 3}
      propertyPath: m_RootOrder
      value: 3
      objectReference: {fileID: 0}
    - target: {fileID: 817482172291733760, guid: 9d246ed5ffc4ea448a524dca514f023f, type: 3}
      propertyPath: m_AnchorMax.x
      value: 0
      objectReference: {fileID: 0}
    - target: {fileID: 817482172291733760, guid: 9d246ed5ffc4ea448a524dca514f023f, type: 3}
      propertyPath: m_AnchorMax.y
      value: 0
      objectReference: {fileID: 0}
    - target: {fileID: 817482172291733760, guid: 9d246ed5ffc4ea448a524dca514f023f, type: 3}
      propertyPath: m_AnchorMin.x
      value: 0
      objectReference: {fileID: 0}
    - target: {fileID: 817482172291733760, guid: 9d246ed5ffc4ea448a524dca514f023f, type: 3}
      propertyPath: m_AnchorMin.y
      value: 0
      objectReference: {fileID: 0}
    - target: {fileID: 817482172291733760, guid: 9d246ed5ffc4ea448a524dca514f023f, type: 3}
      propertyPath: m_SizeDelta.x
      value: 0
      objectReference: {fileID: 0}
    - target: {fileID: 817482172291733760, guid: 9d246ed5ffc4ea448a524dca514f023f, type: 3}
      propertyPath: m_SizeDelta.y
      value: 0
      objectReference: {fileID: 0}
    - target: {fileID: 817482172291733760, guid: 9d246ed5ffc4ea448a524dca514f023f, type: 3}
      propertyPath: m_LocalPosition.x
      value: 0
      objectReference: {fileID: 0}
    - target: {fileID: 817482172291733760, guid: 9d246ed5ffc4ea448a524dca514f023f, type: 3}
      propertyPath: m_LocalPosition.y
      value: 0
      objectReference: {fileID: 0}
    - target: {fileID: 817482172291733760, guid: 9d246ed5ffc4ea448a524dca514f023f, type: 3}
      propertyPath: m_LocalPosition.z
      value: 0
      objectReference: {fileID: 0}
    - target: {fileID: 817482172291733760, guid: 9d246ed5ffc4ea448a524dca514f023f, type: 3}
      propertyPath: m_LocalRotation.w
      value: 1
      objectReference: {fileID: 0}
    - target: {fileID: 817482172291733760, guid: 9d246ed5ffc4ea448a524dca514f023f, type: 3}
      propertyPath: m_LocalRotation.x
      value: 0
      objectReference: {fileID: 0}
    - target: {fileID: 817482172291733760, guid: 9d246ed5ffc4ea448a524dca514f023f, type: 3}
      propertyPath: m_LocalRotation.y
      value: 0
      objectReference: {fileID: 0}
    - target: {fileID: 817482172291733760, guid: 9d246ed5ffc4ea448a524dca514f023f, type: 3}
      propertyPath: m_LocalRotation.z
      value: 0
      objectReference: {fileID: 0}
    - target: {fileID: 817482172291733760, guid: 9d246ed5ffc4ea448a524dca514f023f, type: 3}
      propertyPath: m_AnchoredPosition.x
      value: 0
      objectReference: {fileID: 0}
    - target: {fileID: 817482172291733760, guid: 9d246ed5ffc4ea448a524dca514f023f, type: 3}
      propertyPath: m_AnchoredPosition.y
      value: 0
      objectReference: {fileID: 0}
    - target: {fileID: 817482172291733760, guid: 9d246ed5ffc4ea448a524dca514f023f, type: 3}
      propertyPath: m_LocalEulerAnglesHint.x
      value: 0
      objectReference: {fileID: 0}
    - target: {fileID: 817482172291733760, guid: 9d246ed5ffc4ea448a524dca514f023f, type: 3}
      propertyPath: m_LocalEulerAnglesHint.y
      value: 0
      objectReference: {fileID: 0}
    - target: {fileID: 817482172291733760, guid: 9d246ed5ffc4ea448a524dca514f023f, type: 3}
      propertyPath: m_LocalEulerAnglesHint.z
      value: 0
      objectReference: {fileID: 0}
    - target: {fileID: 817482172291733788, guid: 9d246ed5ffc4ea448a524dca514f023f, type: 3}
      propertyPath: m_Name
      value: Canvas
      objectReference: {fileID: 0}
    m_RemovedComponents: []
  m_SourcePrefab: {fileID: 100100000, guid: 9d246ed5ffc4ea448a524dca514f023f, type: 3}
--- !u!114 &703918389 stripped
MonoBehaviour:
  m_CorrespondingSourceObject: {fileID: 817482172495290203, guid: 9d246ed5ffc4ea448a524dca514f023f, type: 3}
  m_PrefabInstance: {fileID: 703918388}
  m_PrefabAsset: {fileID: 0}
  m_GameObject: {fileID: 0}
  m_Enabled: 1
  m_EditorHideFlags: 0
  m_Script: {fileID: 11500000, guid: 5f7201a12d95ffc409449d95f23cf332, type: 3}
  m_Name: 
  m_EditorClassIdentifier: 
--- !u!1 &1094206595
GameObject:
  m_ObjectHideFlags: 0
  m_CorrespondingSourceObject: {fileID: 0}
  m_PrefabInstance: {fileID: 0}
  m_PrefabAsset: {fileID: 0}
  serializedVersion: 6
  m_Component:
  - component: {fileID: 1094206598}
  - component: {fileID: 1094206597}
  - component: {fileID: 1094206596}
  m_Layer: 0
  m_Name: EventSystem
  m_TagString: Untagged
  m_Icon: {fileID: 0}
  m_NavMeshLayer: 0
  m_StaticEditorFlags: 0
  m_IsActive: 1
--- !u!114 &1094206596
MonoBehaviour:
  m_ObjectHideFlags: 0
  m_CorrespondingSourceObject: {fileID: 0}
  m_PrefabInstance: {fileID: 0}
  m_PrefabAsset: {fileID: 0}
  m_GameObject: {fileID: 1094206595}
  m_Enabled: 1
  m_EditorHideFlags: 0
  m_Script: {fileID: 11500000, guid: 4f231c4fb786f3946a6b90b886c48677, type: 3}
  m_Name: 
  m_EditorClassIdentifier: 
  m_HorizontalAxis: Horizontal
  m_VerticalAxis: Vertical
  m_SubmitButton: Submit
  m_CancelButton: Cancel
  m_InputActionsPerSecond: 10
  m_RepeatDelay: 0.5
  m_ForceModuleActive: 0
--- !u!114 &1094206597
MonoBehaviour:
  m_ObjectHideFlags: 0
  m_CorrespondingSourceObject: {fileID: 0}
  m_PrefabInstance: {fileID: 0}
  m_PrefabAsset: {fileID: 0}
  m_GameObject: {fileID: 1094206595}
  m_Enabled: 1
  m_EditorHideFlags: 0
  m_Script: {fileID: 11500000, guid: 76c392e42b5098c458856cdf6ecaaaa1, type: 3}
  m_Name: 
  m_EditorClassIdentifier: 
  m_FirstSelected: {fileID: 0}
  m_sendNavigationEvents: 1
  m_DragThreshold: 10
--- !u!4 &1094206598
Transform:
  m_ObjectHideFlags: 0
  m_CorrespondingSourceObject: {fileID: 0}
  m_PrefabInstance: {fileID: 0}
  m_PrefabAsset: {fileID: 0}
  m_GameObject: {fileID: 1094206595}
  m_LocalRotation: {x: 0, y: 0, z: 0, w: 1}
  m_LocalPosition: {x: 0, y: 0, z: 0}
  m_LocalScale: {x: 1, y: 1, z: 1}
  m_Children: []
  m_Father: {fileID: 0}
  m_RootOrder: 4
  m_LocalEulerAnglesHint: {x: 0, y: 0, z: 0}
--- !u!1001 &1401617215
PrefabInstance:
  m_ObjectHideFlags: 0
  serializedVersion: 2
  m_Modification:
    m_TransformParent: {fileID: 0}
    m_Modifications:
    - target: {fileID: 1391818888814086578, guid: d6b5c17615cf13247a9306b82abeec23, type: 3}
      propertyPath: m_Name
      value: Ball
      objectReference: {fileID: 0}
    - target: {fileID: 1391818888814086582, guid: d6b5c17615cf13247a9306b82abeec23, type: 3}
      propertyPath: m_RootOrder
      value: 1
      objectReference: {fileID: 0}
    - target: {fileID: 1391818888814086582, guid: d6b5c17615cf13247a9306b82abeec23, type: 3}
      propertyPath: m_LocalPosition.x
      value: 0
      objectReference: {fileID: 0}
    - target: {fileID: 1391818888814086582, guid: d6b5c17615cf13247a9306b82abeec23, type: 3}
      propertyPath: m_LocalPosition.y
      value: 19.43
      objectReference: {fileID: 0}
    - target: {fileID: 1391818888814086582, guid: d6b5c17615cf13247a9306b82abeec23, type: 3}
      propertyPath: m_LocalPosition.z
      value: -1.28
      objectReference: {fileID: 0}
    - target: {fileID: 1391818888814086582, guid: d6b5c17615cf13247a9306b82abeec23, type: 3}
      propertyPath: m_LocalRotation.w
      value: 1
      objectReference: {fileID: 0}
    - target: {fileID: 1391818888814086582, guid: d6b5c17615cf13247a9306b82abeec23, type: 3}
      propertyPath: m_LocalRotation.x
      value: 0
      objectReference: {fileID: 0}
    - target: {fileID: 1391818888814086582, guid: d6b5c17615cf13247a9306b82abeec23, type: 3}
      propertyPath: m_LocalRotation.y
      value: 0
      objectReference: {fileID: 0}
    - target: {fileID: 1391818888814086582, guid: d6b5c17615cf13247a9306b82abeec23, type: 3}
      propertyPath: m_LocalRotation.z
      value: 0
      objectReference: {fileID: 0}
    - target: {fileID: 1391818888814086582, guid: d6b5c17615cf13247a9306b82abeec23, type: 3}
      propertyPath: m_LocalEulerAnglesHint.x
      value: 0
      objectReference: {fileID: 0}
    - target: {fileID: 1391818888814086582, guid: d6b5c17615cf13247a9306b82abeec23, type: 3}
      propertyPath: m_LocalEulerAnglesHint.y
      value: 0
      objectReference: {fileID: 0}
    - target: {fileID: 1391818888814086582, guid: d6b5c17615cf13247a9306b82abeec23, type: 3}
      propertyPath: m_LocalEulerAnglesHint.z
      value: 0
      objectReference: {fileID: 0}
    - target: {fileID: 1391818888954753771, guid: d6b5c17615cf13247a9306b82abeec23, type: 3}
      propertyPath: m_BackGroundColor.b
      value: 0.5566951
      objectReference: {fileID: 0}
    - target: {fileID: 1391818888954753771, guid: d6b5c17615cf13247a9306b82abeec23, type: 3}
      propertyPath: m_BackGroundColor.g
      value: 0.6037736
      objectReference: {fileID: 0}
    - target: {fileID: 1391818888954753771, guid: d6b5c17615cf13247a9306b82abeec23, type: 3}
      propertyPath: m_BackGroundColor.r
      value: 0.5496618
      objectReference: {fileID: 0}
    - target: {fileID: 3894007775098037754, guid: d6b5c17615cf13247a9306b82abeec23, type: 3}
      propertyPath: scoreText
      value: 
      objectReference: {fileID: 703918389}
    - target: {fileID: 7943385391812448188, guid: d6b5c17615cf13247a9306b82abeec23, type: 3}
      propertyPath: ShapeModule.m_Texture
      value: 
      objectReference: {fileID: 0}
    m_RemovedComponents: []
  m_SourcePrefab: {fileID: 100100000, guid: d6b5c17615cf13247a9306b82abeec23, type: 3}
